<?xml version="1.0" encoding="UTF-8" ?>
<testsuite tests="21" failures="0" name="com.sg.addressbookv2.dao.AddressBookImplementationTest" time="1.798" errors="0" skipped="0">
  <properties>
    <property name="java.runtime.name" value="Java(TM) SE Runtime Environment"/>
    <property name="sun.boot.library.path" value="/Library/Java/JavaVirtualMachines/jdk1.8.0_91.jdk/Contents/Home/jre/lib"/>
    <property name="java.vm.version" value="25.91-b14"/>
    <property name="gopherProxySet" value="false"/>
    <property name="java.vm.vendor" value="Oracle Corporation"/>
    <property name="java.vendor.url" value="http://java.oracle.com/"/>
    <property name="path.separator" value=":"/>
    <property name="guice.disable.misplaced.annotation.check" value="true"/>
    <property name="java.vm.name" value="Java HotSpot(TM) 64-Bit Server VM"/>
    <property name="file.encoding.pkg" value="sun.io"/>
    <property name="user.country" value="US"/>
    <property name="sun.java.launcher" value="SUN_STANDARD"/>
    <property name="sun.os.patch.level" value="unknown"/>
    <property name="test" value="com.sg.addressbookv2.dao.AddressBookImplementationTest"/>
    <property name="java.vm.specification.name" value="Java Virtual Machine Specification"/>
    <property name="user.dir" value="/Users/Kratos/Documents/Order/Git_Repos/bitbucket_Repos/bootCamp/Under_Development/NetBean/Java OO Concepts Lesson 10 Assignment_AddressBook v2 Lab/AddressBookV2"/>
    <property name="java.runtime.version" value="1.8.0_91-b14"/>
    <property name="java.awt.graphicsenv" value="sun.awt.CGraphicsEnvironment"/>
    <property name="java.endorsed.dirs" value="/Library/Java/JavaVirtualMachines/jdk1.8.0_91.jdk/Contents/Home/jre/lib/endorsed"/>
    <property name="os.arch" value="x86_64"/>
    <property name="java.io.tmpdir" value="/var/folders/ym/p9ccv7s970dcpkv36b0dt2j40000gn/T/"/>
    <property name="line.separator" value="
"/>
    <property name="java.vm.specification.vendor" value="Oracle Corporation"/>
    <property name="os.name" value="Mac OS X"/>
    <property name="maven.ext.class.path" value="/Applications/NetBeans/NetBeans 8.1.app/Contents/Resources/NetBeans/java/maven-nblib/netbeans-eventspy.jar"/>
    <property name="classworlds.conf" value="/Applications/NetBeans/NetBeans 8.1.app/Contents/Resources/NetBeans/java/maven/bin/m2.conf"/>
    <property name="sun.jnu.encoding" value="UTF-8"/>
    <property name="java.library.path" value="/Applications/NetBeans/NetBeans 8.1.app/Contents/Resources/NetBeans/webcommon/bin::/Users/Kratos/Library/Java/Extensions:/Library/Java/Extensions:/Network/Library/Java/Extensions:/System/Library/Java/Extensions:/usr/lib/java:."/>
    <property name="java.specification.name" value="Java Platform API Specification"/>
    <property name="java.class.version" value="52.0"/>
    <property name="sun.management.compiler" value="HotSpot 64-Bit Tiered Compilers"/>
    <property name="os.version" value="10.10.5"/>
    <property name="http.nonProxyHosts" value="local|*.local|169.254/16|*.169.254/16"/>
    <property name="user.home" value="/Users/Kratos"/>
    <property name="user.timezone" value="America/New_York"/>
    <property name="java.awt.printerjob" value="sun.lwawt.macosx.CPrinterJob"/>
    <property name="java.specification.version" value="1.8"/>
    <property name="file.encoding" value="UTF-8"/>
    <property name="user.name" value="Kratos"/>
    <property name="java.class.path" value="/Applications/NetBeans/NetBeans 8.1.app/Contents/Resources/NetBeans/java/maven/boot/plexus-classworlds-2.4.jar"/>
    <property name="java.vm.specification.version" value="1.8"/>
    <property name="sun.arch.data.model" value="64"/>
    <property name="java.home" value="/Library/Java/JavaVirtualMachines/jdk1.8.0_91.jdk/Contents/Home/jre"/>
    <property name="sun.java.command" value="org.codehaus.plexus.classworlds.launcher.Launcher -Dtest=com.sg.addressbookv2.dao.AddressBookImplementationTest -Dmaven.ext.class.path=/Applications/NetBeans/NetBeans 8.1.app/Contents/Resources/NetBeans/java/maven-nblib/netbeans-eventspy.jar surefire:test"/>
    <property name="java.specification.vendor" value="Oracle Corporation"/>
    <property name="user.language" value="en"/>
    <property name="awt.toolkit" value="sun.lwawt.macosx.LWCToolkit"/>
    <property name="java.vm.info" value="mixed mode"/>
    <property name="java.version" value="1.8.0_91"/>
    <property name="java.ext.dirs" value="/Users/Kratos/Library/Java/Extensions:/Library/Java/JavaVirtualMachines/jdk1.8.0_91.jdk/Contents/Home/jre/lib/ext:/Library/Java/Extensions:/Network/Library/Java/Extensions:/System/Library/Java/Extensions:/usr/lib/java"/>
    <property name="sun.boot.class.path" value="/Library/Java/JavaVirtualMachines/jdk1.8.0_91.jdk/Contents/Home/jre/lib/resources.jar:/Library/Java/JavaVirtualMachines/jdk1.8.0_91.jdk/Contents/Home/jre/lib/rt.jar:/Library/Java/JavaVirtualMachines/jdk1.8.0_91.jdk/Contents/Home/jre/lib/sunrsasign.jar:/Library/Java/JavaVirtualMachines/jdk1.8.0_91.jdk/Contents/Home/jre/lib/jsse.jar:/Library/Java/JavaVirtualMachines/jdk1.8.0_91.jdk/Contents/Home/jre/lib/jce.jar:/Library/Java/JavaVirtualMachines/jdk1.8.0_91.jdk/Contents/Home/jre/lib/charsets.jar:/Library/Java/JavaVirtualMachines/jdk1.8.0_91.jdk/Contents/Home/jre/lib/jfr.jar:/Library/Java/JavaVirtualMachines/jdk1.8.0_91.jdk/Contents/Home/jre/classes"/>
    <property name="java.vendor" value="Oracle Corporation"/>
    <property name="maven.home" value="/Applications/NetBeans/NetBeans 8.1.app/Contents/Resources/NetBeans/java/maven"/>
    <property name="file.separator" value="/"/>
    <property name="java.vendor.url.bug" value="http://bugreport.sun.com/bugreport/"/>
    <property name="sun.cpu.endian" value="little"/>
    <property name="sun.io.unicode.encoding" value="UnicodeBig"/>
    <property name="socksNonProxyHosts" value="local|*.local|169.254/16|*.169.254/16"/>
    <property name="ftp.nonProxyHosts" value="local|*.local|169.254/16|*.169.254/16"/>
    <property name="sun.cpu.isalist" value=""/>
  </properties>
  <testcase classname="com.sg.addressbookv2.dao.AddressBookImplementationTest" name="countRecordTest_1" time="0.682"/>
  <testcase classname="com.sg.addressbookv2.dao.AddressBookImplementationTest" name="importDataTest_1" time="0.045"/>
  <testcase classname="com.sg.addressbookv2.dao.AddressBookImplementationTest" name="importDataTest_2" time="0.043"/>
  <testcase classname="com.sg.addressbookv2.dao.AddressBookImplementationTest" name="decoding_1" time="0.059"/>
  <testcase classname="com.sg.addressbookv2.dao.AddressBookImplementationTest" name="listAllTest_1" time="0.089"/>
  <testcase classname="com.sg.addressbookv2.dao.AddressBookImplementationTest" name="filterLastNameTest_1" time="0.076"/>
  <testcase classname="com.sg.addressbookv2.dao.AddressBookImplementationTest" name="filterLastNameTest_2" time="0.043"/>
  <testcase classname="com.sg.addressbookv2.dao.AddressBookImplementationTest" name="filterCityTest_1" time="0.036"/>
  <testcase classname="com.sg.addressbookv2.dao.AddressBookImplementationTest" name="filterCityTest_2" time="0.032"/>
  <testcase classname="com.sg.addressbookv2.dao.AddressBookImplementationTest" name="addRecordTest_1" time="0.031"/>
  <testcase classname="com.sg.addressbookv2.dao.AddressBookImplementationTest" name="findIndexByFLNameTest_1" time="0.105"/>
  <testcase classname="com.sg.addressbookv2.dao.AddressBookImplementationTest" name="findIndexByFLNameTest_2" time="0.03"/>
  <testcase classname="com.sg.addressbookv2.dao.AddressBookImplementationTest" name="exportDataTest_1" time="0.06"/>
  <testcase classname="com.sg.addressbookv2.dao.AddressBookImplementationTest" name="removeRecordTest_1" time="0.08"/>
  <testcase classname="com.sg.addressbookv2.dao.AddressBookImplementationTest" name="filterStateTest_1" time="0.071"/>
  <testcase classname="com.sg.addressbookv2.dao.AddressBookImplementationTest" name="filterStateTest_2" time="0.057"/>
  <testcase classname="com.sg.addressbookv2.dao.AddressBookImplementationTest" name="filterZipCodeTest_1" time="0.035"/>
  <testcase classname="com.sg.addressbookv2.dao.AddressBookImplementationTest" name="filterZipCodeTest_2" time="0.027"/>
  <testcase classname="com.sg.addressbookv2.dao.AddressBookImplementationTest" name="editRecordTest_1" time="0.029"/>
  <testcase classname="com.sg.addressbookv2.dao.AddressBookImplementationTest" name="findIndexByFullRecordData_1" time="0.057"/>
  <testcase classname="com.sg.addressbookv2.dao.AddressBookImplementationTest" name="findIndexByFullRecordData_2" time="0.023"/>
</testsuite>